..............
----------------------------------------------------------------------
Ran 14 tests in 0.022s

OK
Name             Stmts   Miss Branch BrPart  Cover   Missing
------------------------------------------------------------
Collatz.py          35      0     12      0   100%
TestCollatz.py      63      0      0      0   100%
------------------------------------------------------------
TOTAL               98      0     12      0   100%
