......................
----------------------------------------------------------------------
Ran 22 tests in 0.566s

OK
Name             Stmts   Miss Branch BrPart  Cover   Missing
------------------------------------------------------------
Collatz.py          79      0     32      0   100%
TestCollatz.py      87      0      0      0   100%
------------------------------------------------------------
TOTAL              166      0     32      0   100%
