1 10 20
100 200 125
201 210 89
900 1000 174
297601 782342 509
845167 639412 525
792334 768923 437
637995 334888 509
284799 637263 509
994066 83155 525
459756 328072 449
632637 926960 525
793962 516592 509
404571 540514 470
470194 100850 449
852496 441456 525
759170 267838 509
550323 940875 525
358574 854296 525
802688 715808 468
173680 300226 443
433212 47385 449
384002 789738 509
55854 246707 443
421327 973537 525
891747 770027 525
511404 651666 509
945793 890656 507
204447 395599 443
532098 389275 470
223753 374162 443
843165 882139 432
275129 651991 509
740147 590012 509
239303 449631 449
825249 766354 468
488375 267352 449
934507 586687 525
305869 298797 371
926714 551342 525
488443 510389 426
441535 750048 509
572467 686750 509
559961 276410 470
559175 680728 509
595564 538532 452
350252 982985 525
206378 697405 509
782003 897551 525
534159 599776 452
857550 12069 525
679806 31164 509
955759 87181 525
72902 387741 443
578505 954751 525
130230 266219 443
553985 510728 470
769839 815748 468
984166 52389 525
604324 386941 470
2757 140993 354
353616 725684 509
498896 920412 525
870839 30361 525
407787 448876 449
957080 177084 525
592522 777123 509
520446 943884 525
762021 340405 509
338458 642285 509
573761 767007 509
276553 696551 509
583003 273655 470
953314 232789 525
635683 338944 509
873437 802453 525
173455 406749 443
179257 966497 525
885527 294038 525
869977 430659 525
52034 6268 324
373401 635028 509
771761 635852 504
131953 345663 443
842407 187219 525
32235 923834 525
166856 808184 509
313334 732499 509
693701 434944 509
995112 281682 525
853615 119576 525
682074 915500 525
893036 327220 525
608373 45110 470
380395 208588 443
619400 720171 509
737099 442889 509
582034 738576 509
261635 308319 407
18437 117589 354
797500 291284 509
573616 249147 470
585198 4480 470
769396 667949 504
538081 758247 509
887462 542210 525
791691 834204 468
579820 974549 525
125328 349224 443
999800 151508 525
285980 881507 525
384081 431277 449
336259 27923 443
152313 47415 375
343082 363553 441
716933 412550 509
488314 843661 525
741233 302551 509
697757 158309 509
352834 853454 525
521860 600379 452
808028 588134 509
944524 8456 525
135027 223978 386
482903 884373 525
822709 55217 509
16679 155531 375
70358 594187 470
299344 693427 509
762345 646547 504
830030 356309 509
40630 742741 509
668460 837291 504
814218 752757 468
238014 242069 368
544033 560919 452
176925 861760 525
27206 926854 525
777005 790772 437
450562 329972 449
311494 491833 449
781169 488465 509
717672 500460 509
807499 765306 468
126261 179888 383
572792 826240 509
195713 775327 509
282069 585723 470
500258 905310 525
185373 766271 509
193330 607971 470
127139 697682 509
445893 233809 449
895700 470428 525
575208 294576 470
209478 815143 509
671836 122944 509
194323 876260 525
956489 702313 525
386846 654292 509
912437 426160 525
66349 361454 443
686330 568192 509
991664 203556 525
921134 333616 525
534212 333253 470
444385 704667 509
475337 805226 509
986311 614425 525
455025 917987 525
496359 818298 509
136152 901608 525
173206 858843 525
91055 329135 443
198113 576011 470
110182 832251 509
698679 339906 509
528409 505408 470
868569 358265 525
545304 964726 525
10211 770454 509
38930 165801 383
311142 759568 509
835843 354349 509
815356 796419 406
858014 899650 445
449175 350561 449
227063 483510 449
59243 557737 470
541589 352752 470
535397 36999 470
602464 967167 525
967591 962710 414
308614 64530 443
356584 376566 410
94887 492859 449
96969 687858 509
629489 834052 504
20007 391983 443
687382 314453 509
35905 234457 443
453608 425446 400
464228 8281 449
398758 748418 509
676280 609498 509
393472 576052 470
125965 425629 449
297887 170747 443
79718 108522 354
17808 697507 509
769497 212671 509
619605 578747 447
104071 277919 443
232526 914945 525
519551 221630 470
658082 436386 509
464220 848278 525
734073 281727 509
358829 120712 443
144357 896373 525
17552 385627 443
390721 692131 509
35500 644417 509
362964 231003 441
836600 847278 525
73250 402170 443
843856 671280 525
303271 880587 525
738228 110894 509
385934 353633 423
236286 38685 443
399010 759049 509
499129 912155 525
376 28632 308
620043 683428 509
444010 576713 470
682744 437060 509
924434 417712 525
886825 405909 525
548098 579906 421
672440 869450 525
411198 750176 509
310852 739345 509
755280 684907 504
167712 558509 470
929937 103397 525
824563 964662 525
186417 563532 470
560519 765074 509
378071 559595 470
188536 984320 525
402620 189948 443
153393 132334 375
553961 705073 509
