...............
----------------------------------------------------------------------
Ran 15 tests in 0.443s

OK
Name             Stmts   Miss Branch BrPart  Cover   Missing
------------------------------------------------------------
Collatz.py          34      1     12      1    96%   59->60, 60
TestCollatz.py      70      0      0      0   100%
------------------------------------------------------------
TOTAL              104      1     12      1    98%
