...................
----------------------------------------------------------------------
Ran 19 tests in 0.429s

OK
Name             Stmts   Miss Branch BrPart  Cover   Missing
------------------------------------------------------------
Collatz.py          32      1     16      1    96%   52->53, 53
TestCollatz.py      75      0      0      0   100%
------------------------------------------------------------
TOTAL              107      1     16      1    98%
