..............
----------------------------------------------------------------------
Ran 14 tests in 0.011s

OK
Name             Stmts   Miss Branch BrPart  Cover   Missing
------------------------------------------------------------
Collatz.py          40      0     12      0   100%
TestCollatz.py      63      0      0      0   100%
------------------------------------------------------------
TOTAL              103      0     12      0   100%
