718636 634115 504
316163 457098 449
412025 283791 449
467238 833072 509
437730 31560 449
470305 203552 449
74612 417490 449
796655 65443 509
483360 46560 449
926096 20501 525
75851 112081 354
50693 295238 443
478845 21593 449
455346 949079 525
672280 113288 509
621221 861797 525
724795 339120 509
600319 492071 470
960318 228798 525
933986 339171 525
524933 750307 509
7514 904808 525
219754 203578 386
918809 222395 525
108786 663049 509
403921 914373 525
377083 718444 509
106544 206512 383
114618 35541 354
86572 690069 509
932060 669332 525
714891 23997 509
512610 68481 470
455851 922328 525
681018 721666 504
603506 332086 470
364896 687485 509
500939 406837 449
64574 683853 509
765411 667609 504
971058 283571 525
377172 416369 449
424411 898360 525
714876 487402 509
52124 426181 449
86005 741997 509
832993 502110 509
272361 406612 441
836820 637239 504
486581 24974 449
92739 680991 509
825779 126800 509
425813 629568 509
651481 606596 509
584841 93210 470
608848 803267 509
557549 535992 452
222077 220483 355
794378 154537 509
505910 804959 509
154642 814768 509
390367 334755 441
794985 628060 504
449047 365060 449
805664 678059 504
755034 906506 525
725851 553901 509
613619 569782 434
312167 629343 509
708292 933796 525
441888 864374 525
466251 613545 470
340858 52107 443
293906 960250 525
579085 349585 470
841861 233418 525
988018 830545 525
285480 401889 441
724003 357628 509
938214 741214 525
263466 552801 470
390348 832218 509
195431 732027 509
19751 419911 449
546337 583264 452
967568 283459 525
556326 942341 525
696048 451387 509
624960 864045 525
957310 29817 525
833761 721232 468
808397 11656 509
27670 973128 525
783455 13306 509
338301 108141 443
397014 796436 509
230714 423602 449
775243 97623 509
181093 153071 383
188573 280955 443
652486 424751 509
966915 109993 525
173477 693195 509
359476 572208 470
38819 554114 470
137683 53761 354
114071 563758 470
739300 855927 525
883221 268952 525
523374 205790 470
196031 395549 443
549173 723211 509
974208 707041 525
949574 417445 525
414183 981955 525
840293 386895 525
921896 904312 476
916748 331487 525
120988 868047 525
905964 168926 525
972934 867260 507
727662 849510 525
743289 892929 525
21097 64705 340
805358 114953 509
66632 264786 443
31672 583666 470
651369 615656 509
996603 533642 525
996830 416593 525
13169 365254 443
882213 532100 525
229165 356589 443
418087 540415 470
942032 450262 525
518571 907524 525
386715 340837 441
175490 915104 525
742269 702082 504
979090 417057 525
477910 961960 525
539896 271569 470
945040 19738 525
742573 113687 509
125761 546129 470
874224 933233 476
32212 755288 509
599723 102307 470
557007 595687 434
80337 267443 443
654232 166337 509
176047 159300 370
168638 422937 449
291716 305744 371
38843 736403 509
805274 220758 509
108608 548823 470
90656 531596 470
532326 416856 470
143508 815825 509
768991 468456 509
397511 11287 443
82743 547534 470
854223 287018 525
777119 234158 509
909804 846292 445
53655 861537 525
740487 996937 525
287348 445395 449
613361 103665 470
374472 594512 470
135669 46387 354
152300 687736 509
794393 150297 509
927472 42961 525
434807 566106 470
248013 335642 407
628733 133336 509
614613 425282 470
174391 551550 470
795163 827405 468
121532 402694 443
526431 511484 470
636439 510562 509
124191 945629 525
370257 135181 443
336820 786783 509
176059 302682 443
915744 12671 525
315324 24805 443
434638 31033 449
335610 997824 525
539460 972026 525
268826 740067 509
773189 243568 509
847727 237025 525
848988 416898 525
150970 117516 375
749139 522102 509
290894 400619 441
