...................
----------------------------------------------------------------------
Ran 19 tests in 1.412s

OK
Name             Stmts   Miss Branch BrPart  Cover   Missing
------------------------------------------------------------
Collatz.py          60      1     22      2    96%   85->88, 88, 91->93
TestCollatz.py      81      0      0      0   100%
------------------------------------------------------------
TOTAL              141      1     22      2    98%
