1 5 8
1 10 20
1 15 20
1 20 21
1 25 24
1 50 112
1 75 116
1 100 119
1 250 128
1 500 144
5 1 8
10 1 20
15 1 20
20 1 21
25 1 24
50 1 112
75 1 116
100 1 119
250 1 128
500 1 144
1 1 1
5 5 6
10 10 7
15 15 18
20 20 8
27 27 112
33 33 27
45 45 17
50 50 25
100 100 26
20 20 8
20 21 8
20 22 16
20 23 16
20 24 16
20 25 24
20 26 24
20 27 112
20 28 112
20 29 112
50 10 112
50 20 112
50 30 110
50 40 110
50 50 25
50 60 113
50 70 113
50 80 116
50 90 116
50 100 119
1 2 2
2 3 8
3 4 8
4 5 6
5 6 9
6 7 17
7 8 17
8 9 20
9 10 20
10 11 15
1 11 20
11 22 21
22 33 112
33 44 110
44 55 113
55 66 113
66 77 116
77 88 111
88 99 119
99 111 114
111 1 119
5 4 6
5 6 9
5 7 17
5 8 17
5 9 20
5 10 20
5 11 20
5 12 20
5 3 8
5 2 8
2 2 2
1 1 1
2 2 2
3 10 20
10 12 15
12 13 10
1 9 20
9 1 20
10 10 7
1 23 21
23 1 21
4 5 6
5 4 6
11 12 15
12 11 15
13 14 18
14 14 18
23 24 16
230 1 125
1 12 20
12 17 18
150000 500000 449
999500 999999 290
